<?xml version="1.0" encoding="UTF-8"?>
<svg width="482px" height="513px" viewBox="0 0 482 513" version="1.1" xmlns="http://www.w3.org/2000/svg" xmlns:xlink="http://www.w3.org/1999/xlink">
    <!-- Generator: Sketch 47.1 (45422) - http://www.bohemiancoding.com/sketch -->
    <title>Cuts</title>
    <desc>Created with Sketch.</desc>
    <defs></defs>
    <g id="Page-1" stroke="none" stroke-width="1" fill="none" fill-rule="evenodd">
        <g id="cuts" fill-rule="nonzero" fill="#BFBFBF">
            <g id="002-cut">
                <path d="M414.969,384.505 C402.532,362.965 375.039,355.597 353.495,368.033 C331.955,380.469 324.586,407.966 337.023,429.507 C349.432,450.999 376.912,458.44 398.497,445.979 C419.986,433.572 427.376,405.995 414.969,384.505 Z M383.497,419.996 C376.317,424.141 367.151,421.686 363.005,414.506 C358.861,407.328 361.315,398.16 368.496,394.015 C375.704,389.853 384.878,392.388 388.987,399.505 C393.122,406.668 390.659,415.861 383.497,419.996 Z" id="Shape"></path>
                <path d="M466.933,354.504 C437.983,304.362 373.637,287.12 323.494,316.069 C319.107,318.602 314.932,321.426 310.992,324.524 L292.906,293.405 L388.209,130.451 C404.028,103.052 411.649,81.488 412.195,62.587 C412.94,36.782 400.68,16.402 375.756,2.012 C368.604,-2.117 359.459,0.312 355.297,7.446 L240.806,203.761 L126.723,7.465 C122.568,0.317 113.414,-2.121 106.253,2.012 C81.33,16.402 69.07,36.782 69.816,62.586 C70.361,81.487 77.983,103.051 93.823,130.488 L188.72,293.757 L170.976,324.49 C167.048,321.405 162.889,318.592 158.516,316.069 C108.374,287.12 44.028,304.36 15.077,354.504 C1.053,378.794 -2.673,407.091 4.587,434.184 C11.847,461.277 29.221,483.92 53.511,497.944 C103.962,527.072 168.183,509.335 196.95,459.509 L240.857,383.461 L285.059,459.509 C313.873,509.416 378.136,527.02 428.499,497.944 C478.757,468.926 495.954,404.769 466.933,354.504 Z M372.774,37.032 C381.275,45.691 382.414,54.496 382.206,61.72 C381.815,75.266 375.28,92.84 362.269,115.376 L275.582,263.597 C255.536,229.105 258.433,234.09 258.141,233.589 L372.774,37.032 Z M119.782,115.45 C106.73,92.841 100.195,75.266 99.804,61.721 C99.596,54.502 100.733,45.704 109.217,37.052 L225.4,236.958 C220.642,237.883 215.955,239.586 211.527,242.142 C206.764,244.892 202.698,248.389 199.381,252.398 L119.782,115.45 Z M170.969,444.508 C150.29,480.325 104.329,492.64 68.512,471.961 C51.162,461.944 38.751,445.77 33.565,426.418 C28.379,407.066 31.041,386.854 41.058,369.504 C61.736,333.687 107.699,321.372 143.515,342.051 C150.95,346.343 157.518,351.791 163.036,358.245 C166.2,361.945 170.96,363.881 175.814,363.433 C180.663,362.986 184.993,360.213 187.428,355.996 L206.099,323.658 L223.479,353.559 L170.969,444.508 Z M413.498,471.961 C377.68,492.64 331.719,480.323 311.019,444.47 C305.779,435.454 221.699,289.764 221.036,288.616 C216.901,281.453 219.364,272.26 226.527,268.125 C232.842,264.479 240.731,265.968 245.345,271.279 L294.603,356.034 C297.046,360.237 301.375,362.995 306.217,363.435 C311.059,363.873 315.814,361.939 318.974,358.245 C324.492,351.793 331.059,346.343 338.495,342.051 C374.311,321.372 420.273,333.688 440.952,369.504 C461.676,405.402 449.402,451.232 413.498,471.961 Z" id="Shape"></path>
                <path d="M128.515,368.032 C106.977,355.596 79.479,362.962 67.041,384.504 C54.633,405.994 62.023,433.571 83.513,445.978 C105.107,458.445 132.575,451.004 144.987,429.506 C157.422,407.968 150.057,380.47 128.515,368.032 Z M119.005,414.505 C114.86,421.684 105.694,424.141 98.513,419.995 C91.35,415.86 88.888,406.667 93.023,399.504 C97.159,392.342 106.352,389.878 113.514,394.014 C120.693,398.159 123.151,407.325 119.005,414.505 Z" id="Shape"></path>
            </g>
        </g>
    </g>
</svg>