<?xml version="1.0" encoding="UTF-8"?>
<svg width="499px" height="500px" viewBox="0 0 499 500" version="1.1" xmlns="http://www.w3.org/2000/svg" xmlns:xlink="http://www.w3.org/1999/xlink">
    <!-- Generator: Sketch 47.1 (45422) - http://www.bohemiancoding.com/sketch -->
    <title>down-arrow copy 6</title>
    <desc>Created with Sketch.</desc>
    <defs></defs>
    <g id="Page-1" stroke="none" stroke-width="1" fill="none" fill-rule="evenodd">
        <g id="down-arrow-copy-6" fill-rule="nonzero" fill="#BFBFBF">
            <g id="edit">
                <path d="M471.781839,27.3192343 C435.812468,-8.57250209 377.578289,-8.57250209 341.604832,27.3192343 L341.604832,27.3682657 L42.8788577,326.061552 C42.2005753,326.776609 41.653046,327.601987 41.2648734,328.505001 C41.158636,328.729733 41.0605711,328.958551 40.9788504,329.191455 C40.8766998,329.420273 40.7827207,329.649091 40.7050858,329.886082 L0.269677824,488.632649 C-0.4780659,491.501046 0.355485356,494.553315 2.45162134,496.649451 C4.54775732,498.745587 7.60002615,499.575052 10.4684226,498.831393 L169.206819,458.412331 C169.447895,458.346954 169.656282,458.220287 169.893273,458.138566 C170.134349,458.056845 170.371339,457.95878 170.604243,457.852543 C171.503171,457.46437 172.32855,456.916841 173.03952,456.238559 L471.724634,157.537101 L471.781839,157.492155 C507.681747,121.52687 507.681747,63.2845188 471.781839,27.3192343 Z M459.94868,39.1483065 C487.026837,66.291841 489.433513,109.424032 465.546548,139.411448 L359.697797,33.5504383 C389.681126,9.66347385 432.813317,12.0742354 459.94868,39.1483065 L459.94868,39.1483065 Z M347.529583,45.1180042 L454.023928,151.559231 L424.024255,181.567076 L317.52991,75.076818 L347.529583,45.1180042 Z M30.1181684,439.261082 C43.3283211,445.194005 53.9070669,455.768665 59.8399906,468.982904 L19.9684561,479.132616 L30.1181684,439.261082 Z M76.143273,464.806976 C68.4370094,445.770136 53.3391088,430.672234 34.3022688,422.965972 L53.2819038,348.297757 L150.803315,445.827341 L76.143273,464.806976 Z M167.12294,438.44796 L60.6285962,331.978132 L305.700837,86.9058902 L412.191096,193.400235 L167.12294,438.44796 Z" id="Shape"></path>
            </g>
        </g>
    </g>
</svg>